%YAML 1.1
%TAG !u! tag:unity3d.com,2011:
--- !u!114 &11400000
MonoBehaviour:
  m_ObjectHideFlags: 0
  m_CorrespondingSourceObject: {fileID: 0}
  m_PrefabInstance: {fileID: 0}
  m_PrefabAsset: {fileID: 0}
  m_GameObject: {fileID: 0}
  m_Enabled: 1
  m_EditorHideFlags: 0
  m_Script: {fileID: 11500000, guid: a321e2ed637a14d4cb3341b6adf4fdb6, type: 3}
  m_Name: Condition23To24
  m_EditorClassIdentifier: 
  prefab: sword_large
  coordinates: {x: 0, y: 0, z: 0}
  NextNode: {fileID: 11400000, guid: 9679a40becb194bab86801f3c92d8f9d, type: 2}
