%YAML 1.1
%TAG !u! tag:unity3d.com,2011:
--- !u!114 &11400000
MonoBehaviour:
  m_ObjectHideFlags: 0
  m_CorrespondingSourceObject: {fileID: 0}
  m_PrefabInstance: {fileID: 0}
  m_PrefabAsset: {fileID: 0}
  m_GameObject: {fileID: 0}
  m_Enabled: 1
  m_EditorHideFlags: 0
  m_Script: {fileID: 11500000, guid: a321e2ed637a14d4cb3341b6adf4fdb6, type: 3}
  m_Name: Condition26To37
  m_EditorClassIdentifier: 
  prefab: Bow
  coordinates: {x: 57.22, y: 1.79, z: 28.22}
  NextNode: {fileID: 11400000, guid: e173ced22f7f044c58e54eedccb87a30, type: 2}
