%YAML 1.1
%TAG !u! tag:unity3d.com,2011:
--- !u!114 &11400000
MonoBehaviour:
  m_ObjectHideFlags: 0
  m_CorrespondingSourceObject: {fileID: 0}
  m_PrefabInstance: {fileID: 0}
  m_PrefabAsset: {fileID: 0}
  m_GameObject: {fileID: 0}
  m_Enabled: 1
  m_EditorHideFlags: 0
  m_Script: {fileID: 11500000, guid: f7553cfbbbc496d459c2c0c6fbbfb433, type: 3}
  m_Name: Scene0
  m_EditorClassIdentifier: 
  NarrativeTextEasy: 
  NarrativeTextHard: 
  Anchorpoints: []
  SignificantDragDropPrefabs: []
  UnsignificantDragDropPrefabs: []
  ScenePrefabs: []
  PrefabCoordinates: []
  PrefabScaling: []
  PrefabRotation: []
  NarrativeAudio: {fileID: 0}
  AmbientAudio: {fileID: 0}
