%YAML 1.1
%TAG !u! tag:unity3d.com,2011:
--- !u!65 &-5928926243189872204
BoxCollider:
  m_ObjectHideFlags: 0
  m_CorrespondingSourceObject: {fileID: 0}
  m_PrefabInstance: {fileID: 0}
  m_PrefabAsset: {fileID: 0}
  m_GameObject: {fileID: 4086580304258914564}
  m_Material: {fileID: 0}
  m_IsTrigger: 0
  m_Enabled: 1
  serializedVersion: 2
  m_Size: {x: 0.9974219, y: 0.2518773, z: 0.8633716}
  m_Center: {x: 0.2083557, y: -0.00062063336, z: 0.050419062}
--- !u!135 &118096828629495564
SphereCollider:
  m_ObjectHideFlags: 0
  m_CorrespondingSourceObject: {fileID: 0}
  m_PrefabInstance: {fileID: 0}
  m_PrefabAsset: {fileID: 0}
  m_GameObject: {fileID: 4086580304258914564}
  m_Material: {fileID: 0}
  m_IsTrigger: 0
  m_Enabled: 1
  serializedVersion: 2
  m_Radius: 0.49871096
  m_Center: {x: 0.2083557, y: -0.00062063336, z: 0.050419062}
--- !u!114 &-6885276309192987642
MonoBehaviour:
  m_ObjectHideFlags: 0
  m_CorrespondingSourceObject: {fileID: 0}
  m_PrefabInstance: {fileID: 0}
  m_PrefabAsset: {fileID: 0}
  m_GameObject: {fileID: 4086580304258914564}
  m_Enabled: 1
  m_EditorHideFlags: 0
  m_Script: {fileID: 11500000, guid: 2514bcc966bad8540ad44dfe20540ee4, type: 3}
  m_Name: 
  m_EditorClassIdentifier: 
  prefabToSet: {fileID: 4046433351773073071, guid: a1a096ab05c9044739b6eb5b6775698c,
    type: 3}
--- !u!114 &191085781425468900
MonoBehaviour:
  m_ObjectHideFlags: 0
  m_CorrespondingSourceObject: {fileID: 0}
  m_PrefabInstance: {fileID: 0}
  m_PrefabAsset: {fileID: 0}
  m_GameObject: {fileID: 4086580304258914564}
  m_Enabled: 0
  m_EditorHideFlags: 0
  m_Script: {fileID: 11500000, guid: 06d878a768ca74fd09d445175eb59620, type: 3}
  m_Name: 
  m_EditorClassIdentifier: 
  dragging: 0
--- !u!1001 &5446996224722501645
PrefabInstance:
  m_ObjectHideFlags: 0
  serializedVersion: 2
  m_Modification:
    m_TransformParent: {fileID: 0}
    m_Modifications:
    - target: {fileID: -927199367670048503, guid: 3954303592f5b4075a5e35d71700aaaa,
        type: 3}
      propertyPath: m_Name
      value: blue_hand_HUD
      objectReference: {fileID: 0}
    - target: {fileID: -927199367670048503, guid: 3954303592f5b4075a5e35d71700aaaa,
        type: 3}
      propertyPath: m_TagString
      value: HUDelements
      objectReference: {fileID: 0}
    - target: {fileID: -927199367670048503, guid: 3954303592f5b4075a5e35d71700aaaa,
        type: 3}
      propertyPath: m_Layer
      value: 10
      objectReference: {fileID: 0}
    - target: {fileID: -4216859302048453862, guid: 3954303592f5b4075a5e35d71700aaaa,
        type: 3}
      propertyPath: m_LocalPosition.x
      value: 0
      objectReference: {fileID: 0}
    - target: {fileID: -4216859302048453862, guid: 3954303592f5b4075a5e35d71700aaaa,
        type: 3}
      propertyPath: m_LocalPosition.y
      value: 0
      objectReference: {fileID: 0}
    - target: {fileID: -4216859302048453862, guid: 3954303592f5b4075a5e35d71700aaaa,
        type: 3}
      propertyPath: m_LocalPosition.z
      value: 0
      objectReference: {fileID: 0}
    - target: {fileID: -4216859302048453862, guid: 3954303592f5b4075a5e35d71700aaaa,
        type: 3}
      propertyPath: m_LocalRotation.x
      value: -0.7071068
      objectReference: {fileID: 0}
    - target: {fileID: -4216859302048453862, guid: 3954303592f5b4075a5e35d71700aaaa,
        type: 3}
      propertyPath: m_LocalRotation.y
      value: 0
      objectReference: {fileID: 0}
    - target: {fileID: -4216859302048453862, guid: 3954303592f5b4075a5e35d71700aaaa,
        type: 3}
      propertyPath: m_LocalRotation.z
      value: 0
      objectReference: {fileID: 0}
    - target: {fileID: -4216859302048453862, guid: 3954303592f5b4075a5e35d71700aaaa,
        type: 3}
      propertyPath: m_LocalRotation.w
      value: 0.7071068
      objectReference: {fileID: 0}
    - target: {fileID: -4216859302048453862, guid: 3954303592f5b4075a5e35d71700aaaa,
        type: 3}
      propertyPath: m_RootOrder
      value: 0
      objectReference: {fileID: 0}
    - target: {fileID: -4216859302048453862, guid: 3954303592f5b4075a5e35d71700aaaa,
        type: 3}
      propertyPath: m_LocalEulerAnglesHint.x
      value: -90
      objectReference: {fileID: 0}
    - target: {fileID: -4216859302048453862, guid: 3954303592f5b4075a5e35d71700aaaa,
        type: 3}
      propertyPath: m_LocalEulerAnglesHint.y
      value: 0
      objectReference: {fileID: 0}
    - target: {fileID: -4216859302048453862, guid: 3954303592f5b4075a5e35d71700aaaa,
        type: 3}
      propertyPath: m_LocalEulerAnglesHint.z
      value: 0
      objectReference: {fileID: 0}
    - target: {fileID: -4216859302048453862, guid: 3954303592f5b4075a5e35d71700aaaa,
        type: 3}
      propertyPath: m_LocalScale.x
      value: 100
      objectReference: {fileID: 0}
    - target: {fileID: -4216859302048453862, guid: 3954303592f5b4075a5e35d71700aaaa,
        type: 3}
      propertyPath: m_LocalScale.y
      value: 100
      objectReference: {fileID: 0}
    - target: {fileID: -4216859302048453862, guid: 3954303592f5b4075a5e35d71700aaaa,
        type: 3}
      propertyPath: m_LocalScale.z
      value: 100
      objectReference: {fileID: 0}
    m_RemovedComponents: []
  m_SourcePrefab: {fileID: 100100000, guid: 3954303592f5b4075a5e35d71700aaaa, type: 3}
--- !u!1 &4086580304258914564 stripped
GameObject:
  m_CorrespondingSourceObject: {fileID: -927199367670048503, guid: 3954303592f5b4075a5e35d71700aaaa,
    type: 3}
  m_PrefabInstance: {fileID: 5446996224722501645}
  m_PrefabAsset: {fileID: 0}
