%YAML 1.1
%TAG !u! tag:unity3d.com,2011:
--- !u!78 &1
TagManager:
  serializedVersion: 2
  tags:
  - Environment
  - HUDelements
  - anchorpoint
  - HUDCamera
  - TopDownTarget
  - Target
  - TopDownCam
  - PlayerCharacter
  - ThirdPersonCam
  - SignificantObj
  - Errormessage
  - UnSignificantObj
  - GameOver
  layers:
  - Default
  - TransparentFX
  - Ignore Raycast
  - 
  - Water
  - UI
  - 
  - 
  - Environment
  - Player
  - Dragable
  - boxcollider
  - 
  - 
  - 
  - 
  - 
  - 
  - 
  - 
  - 
  - 
  - 
  - 
  - 
  - 
  - 
  - 
  - 
  - 
  - 
  - 
  m_SortingLayers:
  - name: Default
    uniqueID: 0
    locked: 0
