%YAML 1.1
%TAG !u! tag:unity3d.com,2011:
--- !u!114 &11400000
MonoBehaviour:
  m_ObjectHideFlags: 0
  m_CorrespondingSourceObject: {fileID: 0}
  m_PrefabInstance: {fileID: 0}
  m_PrefabAsset: {fileID: 0}
  m_GameObject: {fileID: 0}
  m_Enabled: 1
  m_EditorHideFlags: 0
  m_Script: {fileID: 11500000, guid: 2fa4cbdc706f12b45b9705ba3ccd8bfb, type: 3}
  m_Name: Node55
  m_EditorClassIdentifier: 
  NextNarrativeNodes:
  - {fileID: 11400000, guid: b4ce26e139c114bc9aa938ed4529401e, type: 2}
  - {fileID: 11400000, guid: e4f9052a5afe44ac6bfe3bea44478573, type: 2}
  SceneIndex: 55
