%YAML 1.1
%TAG !u! tag:unity3d.com,2011:
--- !u!114 &11400000
MonoBehaviour:
  m_ObjectHideFlags: 0
  m_CorrespondingSourceObject: {fileID: 0}
  m_PrefabInstance: {fileID: 0}
  m_PrefabAsset: {fileID: 0}
  m_GameObject: {fileID: 0}
  m_Enabled: 1
  m_EditorHideFlags: 0
  m_Script: {fileID: 11500000, guid: 2fa4cbdc706f12b45b9705ba3ccd8bfb, type: 3}
  m_Name: Node51
  m_EditorClassIdentifier: 
  NextNarrativeNodes:
  - {fileID: 11400000, guid: 24e817154adbb45d5a31ba981fb0d502, type: 2}
  - {fileID: 11400000, guid: 7c9a9089e0cb74fe08a11fbbaa990d65, type: 2}
  SceneIndex: 51
